[
	{
		"_id": "CONT-82342F22G4-3",
		"contactId": "KL-884JKFG4-3",
		"contactType": "CARD"
	},
	{
		"_id": "CONT-82ER42G4-3",
		"contactId": "F1-5NIID34-3",
		"contactType": "CARD"
	},
	{
		"_id": "CONT-822EDEG4-3",
		"contactId": "12-DCRR485J-3",
		"contactType": "CARD"
	},
	{
		"_id": "CONT-822G4-3",
		"contactId": "09-884GBNskc-3",
		"contactType": "CARD"
	}
]